{
	"process_id" : 2045,
	"version" : "2021.2.8f1",
	"app_path" : "/Applications/Unity/Hub/Editor/2021.2.8f1/Unity.app",
	"app_contents_path" : "/Applications/Unity/Hub/Editor/2021.2.8f1/Unity.app/Contents"
}